[
    {
        "name": "Faceted Fossil",
        "description": "More Socketed Gem Level modifiers",
        "tagWeights": [
            {
                "tag": "gem_level",
                "weight": 1000
            }
        ],
        "id": "CurrencyDelveCraftingGemLevel",
        "fullId": "Metadata/Items/Currency/CurrencyDelveCraftingGemLevel"
    },
    {
        "name": "Aberrant Fossil",
        "description": "More Chaos modifiers\r\nNo Lightning modifiers",
        "tagWeights": [
          {
            "tag": "lightning",
            "weight": 0
          },
          {
            "tag": "chaos",
            "weight": 1000
          },
          {
            "tag": "poison",
            "weight": 500
          }
        ],
        "id": "CurrencyDelveCraftingChaos",
        "fullId": "Metadata/Items/Currency/CurrencyDelveCraftingChaos"
    },
    {
        "name": "Perfect Fossil",
        "description": "Improved Quality",
        "tagWeights": [
        ],
        "id": "CurrencyDelveCraftingQuality",
        "fullId": "Metadata/Items/Currency/CurrencyDelveCraftingQuality"
    },
    {
        "name": "Prismatic Fossil",
        "description": "More Elemental modifiers\r\nNo Poison or Bleeding modifiers",
        "tagWeights": [
          {
            "tag": "fire",
            "weight": 500
          },
          {
            "tag": "cold",
            "weight": 500
          },
          {
            "tag": "lightning",
            "weight": 500
          },
          {
            "tag": "elemental",
            "weight": 1000
          },
          {
            "tag": "bleed",
            "weight": 0
          },
          {
            "tag": "poison",
            "weight": 0
          }
        ],
        "id": "CurrencyDelveCraftingElemental",
        "fullId": "Metadata/Items/Currency/CurrencyDelveCraftingElemental"
    },
    {
        "name": "Dense Fossil",
        "description": "More Armour, Energy Shield or Evasion modifiers\r\nNo Life Modifiers",
        "tagWeights": [
          {
              "tag": "life",
              "weight": 0
          },
          {
            "tag": "defences",
            "weight": 1000
          }
        ],
        "id": "CurrencyDelveCraftingDefences",
        "fullId": "Metadata/Items/Currency/CurrencyDelveCraftingDefences"
    },
    {
        "name": "Tangled Fossil",
        "description": "Can have any Fossil modifiers",
        "tagWeights": [
            {
                "tag": "delve",
                "weight": 1000
            }
        ],
        "id": "CurrencyDelveCraftingRandom",
        "fullId": "Metadata/Items/Currency/CurrencyDelveCraftingRandom"
    },
    {
        "name": "Jagged Fossil",
        "description": "More Physical modifiers\r\nNo Chaos modifiers",
        "tagWeights": [
          {
            "tag": "chaos",
            "weight": 0
          },
          {
            "tag": "poison",
            "weight": 0
          },
          {
            "tag": "physical",
            "weight": 1000
          },
          {
            "tag": "bleed",
            "weight": 500
          }
        ],
        "id": "CurrencyDelveCraftingPhysical",
        "fullId": "Metadata/Items/Currency/CurrencyDelveCraftingPhysical"
    },
    {
        "name": "Sanctified Fossil",
        "description": "Numeric modifier values are lucky\r\nHigh Level modifiers are more common",
        "tagWeights": [
        ],
        "id": "CurrencyDelveCraftingLuckyModRolls",
        "fullId": "Metadata/Items/Currency/CurrencyDelveCraftingLuckyModRolls"
    },
    {
        "name": "Aetheric Fossil",
        "description": "More Caster modifiers\r\nFewer Attack modifiers",
        "tagWeights": [
            {
                "tag": "attack",
                "weight": 0.15
            },
          {
            "tag": "caster",
            "weight": 1000
          }
        ],
        "id": "CurrencyDelveCraftingCasterMods_",
        "fullId": "Metadata/Items/Currency/CurrencyDelveCraftingCasterMods"
    },
    {
        "name": "Metallic Fossil",
        "description": "More Lightning modifiers\r\nNo Physical modifiers",
        "tagWeights": [
          {
            "tag": "physical",
            "weight": 0
          },
          {
            "tag": "bleed",
            "weight": 0
          },
          {
            "tag": "lightning",
            "weight": 1000
          }
        ],
        "id": "CurrencyDelveCraftingLightning",
        "fullId": "Metadata/Items/Currency/CurrencyDelveCraftingLightning"
    },
    {
        "name": "Pristine Fossil",
        "description": "More Life modifiers\r\nNo Armour, Energy Shield or Evasion modifiers",
        "tagWeights": [
          {
            "tag": "defences",
            "weight": 0
          },
          {
            "tag": "flat_life_regen",
            "weight": 100
          },
          {
            "tag": "life",
            "weight": 1000
          }
        ],
        "id": "CurrencyDelveCraftingLife",
        "fullId": "Metadata/Items/Currency/CurrencyDelveCraftingLife"
    },
    {
        "name": "Hollow Fossil",
        "description": "Has an Abyssal socket",
        "tagWeights": [
            {
                "tag": "abyssal_socket",
                "weight": 1000
            }
        ],
        "id": "CurrencyDelveCraftingAbyss",
        "fullId": "Metadata/Items/Currency/CurrencyDelveCraftingAbyss"
    },
    {
        "name": "Frigid Fossil",
        "description": "More Cold modifiers\r\nNo Fire modifiers",
        "tagWeights": [
          {
            "tag": "fire",
            "weight": 0
          },
          {
            "tag": "cold",
            "weight": 1000
          }
        ],
        "id": "CurrencyDelveCraftingCold",
        "fullId": "Metadata/Items/Currency/CurrencyDelveCraftingCold"
    },
    {
        "name": "Glyphic Fossil",
        "description": "Has a Corrupt Essence modifier",
        "tagWeights": [
        ],
        "id": "CurrencyDelveCraftingCorruptEssence",
        "fullId": "Metadata/Items/Currency/CurrencyDelveCraftingCorruptEssence"
    },
    {
        "name": "Bloodstained Fossil",
        "description": "Has a Vaal modifier",
        "tagWeights": [
            {
                "tag": "vaal",
                "weight": 1000
            }
        ],
        "id": "CurrencyDelveCraftingVaal",
        "fullId": "Metadata/Items/Currency/CurrencyDelveCraftingVaal"
    },
    {
        "name": "Serrated Fossil",
        "description": "More Attack modifiers\r\nFewer Caster modifiers",
        "tagWeights": [
            {
                "tag": "caster",
                "weight": 0.15
            },
          {
            "tag": "attack",
            "weight": 1000
          }
        ],
        "id": "CurrencyDelveCraftingAttackMods",
        "fullId": "Metadata/Items/Currency/CurrencyDelveCraftingAttackMods"
    },
    {
        "name": "Lucent Fossil",
        "description": "More Mana modifiers\r\nNo Speed modifiers",
        "tagWeights": [
          {
            "tag": "speed",
            "weight": 0
          },
          {
            "tag": "mana",
            "weight": 1000
          }
        ],
        "id": "CurrencyDelveCraftingManaMods",
        "fullId": "Metadata/Items/Currency/CurrencyDelveCraftingMana"
    },
    {
        "name": "Bound Fossil",
        "description": "More Minion or Aura modifiers",
        "tagWeights": [
          {
            "tag": "minion",
            "weight": 1000
          },
          {
            "tag": "aura",
            "weight": 1000
          }
        ],
        "id": "CurrencyDelveCraftingMinionsAuras",
        "fullId": "Metadata/Items/Currency/CurrencyDelveCraftingMinionsAuras"
    },
    {
        "name": "Corroded Fossil",
        "description": "More Poison or Bleeding modifiers\r\nNo Elemental modifiers",
        "tagWeights": [
          {
            "tag": "elemental",
            "weight": 0
          },
          {
            "tag": "fire",
            "weight": 0
          },
          {
            "tag": "cold",
            "weight": 0
          },
          {
            "tag": "lightning",
            "weight": 0
          },
          {
            "tag": "bleed",
            "weight": 1000
          },
          {
            "tag": "poison",
            "weight": 1000
          }
        ],
        "id": "CurrencyDelveCraftingBleedPoison",
        "fullId": "Metadata/Items/Currency/CurrencyDelveCraftingBleedPoison"
    },
    {
        "name": "Scorched Fossil",
        "description": "More Fire modifiers\r\nNo Cold modifiers",
        "tagWeights": [
          {
            "tag": "fire",
            "weight": 1000
          },
          {
            "tag": "cold",
            "weight": 0
          }
        ],
        "id": "CurrencyDelveCraftingFire",
        "fullId": "Metadata/Items/Currency/CurrencyDelveCraftingFire"
    },
    {
        "name": "Gilded Fossil",
        "description": "Item is overvalued by vendors",
        "tagWeights": [
            {
                "tag": "gilded",
                "weight": 1000
            }
        ],
        "id": "CurrencyDelveCraftingSellPrice",
        "fullId": "Metadata/Items/Currency/CurrencyDelveCraftingSellPrice"
    },
    {
        "name": "Enchanted Fossil",
        "description": "Has a Labyrinth Enchantment",
        "tagWeights": [
        ],
        "id": "CurrencyDelveCraftingEnchant",
        "fullId": "Metadata/Items/Currency/CurrencyDelveCraftingEnchant"
    },
    {
        "name": "Fractured Fossil ",
        "description": "Creates a mirrored copy",
        "tagWeights": [
        ],
        "id": "CurrencyDelveCraftingMirror",
        "fullId": "Metadata/Items/Currency/CurrencyDelveCraftingMirror"
    },
    {
        "name": "Shuddering Fossil",
        "description": "More Speed modifiers\r\nNo Mana modifiers",
        "tagWeights": [
          {
            "tag": "mana",
            "weight": 0
          },
          {
            "tag": "speed",
            "weight": 1000
          }
        ],
        "id": "CurrencyDelveCraftingSpeedMods",
        "fullId": "Metadata/Items/Currency/CurrencyDelveCraftingSpeed"
    },
    {
        "name": "Encrusted Fossil",
        "description": "More sockets\r\nCan have white sockets",
        "tagWeights": [
        ],
        "id": "CurrencyDelveCraftingSockets",
        "fullId": "Metadata/Items/Currency/CurrencyDelveCraftingSockets"
    }
]
